\version "2.16.0"

\header {
 mutopiatitle = "Anitra's Dance (Tanz)"
 mutopiasubtitle = "La danse d'Anitra"
 mutopiacomposer = "GriegE"
 mutopiapoet = "Henrik Ibsen"
 mutopiaopus = "O 46"
 mutopiainstrument = "String Ensemble: Violin, Viola, Cello, Double Bass, Triangle"
 date = "1874-76 - rescored by Grieg 1886"
title = "Peer Gynt Suite I"
subtitle = "3. Anitras dans"
composer = "Edvard H. Grieg (1843 - 1907)"
poet = "Henrik J. Ibsen"
opus = "Op. 46"
copyright = "Public Domain"
source = "Kunkel Brothers 1891, 1893, Best National Music Co. 188?"
style = "Romantic"
filename = "anitrasdance.ly"
maintainer = "Deborah Lowrey"
maintainerEmail = "drlowrey@karmaresources.com"
maintainerWeb = "http://www.karmaresources.com"
lastupdated = "2013/09/22"
footer = "Mutopia-2013/0/27-281"
tagline = \markup { \override #'(box-padding . 1.0) \override #'(baseline-skip . 2.7) \box \center-column { \abs-fontsize #10 \line { Sheet music from \with-url #"http://www.MutopiaProject.org" \line { \concat { \abs-fontsize #8 www. \abs-fontsize #11 MutopiaProject \abs-fontsize #8 .org } \hspace #0.5 } • \hspace #0.5 \italic Free to download, with the \italic freedom to distribute, modify and perform. } \line { \abs-fontsize #10 \line { Typeset using \with-url #"http://www.LilyPond.org" \line { \concat { \abs-fontsize #8 www. \abs-fontsize #11 LilyPond \abs-fontsize #8 .org }} by \concat { \maintainer . } \hspace #0.5 Copyright © 2013. \hspace #0.5 Reference: \footer } } \line { \abs-fontsize #8 \line { Licensed under the Public Domain License} } } }
}
